Practice worksheet: US energy production
…
According to the column name, the first four digits of each value are the year, while the last two digits are the month. Using the separate() function, create two new columns from the YYYYMM column: one with the year values, and one with the month values. Store the new dataframe as US_energy.sep

Hint: Remember the two different ways you can separate a column using the sep argument. See the separate() help page for more info.

# Remember: For the "sep" argument, you can separate either by a character string (e.g. " " or "_") OR by a position (e.g. 2 characters from the right or left)!
US_energy.sep <- US_energy.wide %>% 
  separate(YYYYMM, into = c("year", "month"), sep = -2)

# Display the data as output
US_energy.sep

output

## # A tibble: 639 x 16
##    year  month Unit  `Coal Productio `Natural Gas (D `Crude Oil Prod
##    <chr> <chr> <chr>            <dbl>            <dbl>            <dbl>
##  1 1949  13    Quad             12.0             5.38             10.7
##  2 1950  13    Quad             14.1             6.23             11.4
##  3 1951  13    Quad             14.4             7.42             13.0
##  4 1952  13    Quad             12.7             7.96             13.3
##  5 1953  13    Quad             12.3             8.34             13.7
##  6 1954  13    Quad             10.5             8.68             13.4
##  7 1955  13    Quad             12.4             9.34             14.4
##  8 1956  13    Quad             13.3            10.0              15.2
##  9 1957  13    Quad             13.1            10.6              15.2
## 10 1958  13    Quad             10.8            10.9              14.2
## #  with 629 more rows, and 10 more variables: `Natural Gas Plant Liquids
## #   Production` <dbl>, `Total Fossil Fuels Production` <dbl>, `Nuclear Electric
## #   Power Production` <dbl>, `Hydroelectric Power Production` <dbl>,
## #   `Geothermal Energy Production` <dbl>, `Solar Energy Production` <dbl>,
## #   `Wind Energy Production` <dbl>, `Biomass Energy Production` <dbl>, `Total
## #   Renewable Energy Production` <dbl>, `Total Primary Energy Production` <dbl>
…
4b) Next, based upon what we learned about month 13, filter the dataframe to only contain rows that represent total production for each year (i.e.one row per year, not one row per month). We only want yearly totals; monthly values are too fine scale for us. Store this new dataframe as US_energy.yearly

Also in this step, investigate what kind of column year is. Is it a character column or a numeric (double/integer) column? If character, use another pipe to tack on a mutate function where you change the year column to a numeric column

US_energy.yearly <- US_energy.sep %>% 
  filter(month == "13") %>% 
  mutate(year = as.numeric(year))

# Display the data as output
US_energy.yearly

output

## # A tibble: 71 x 16
##     year month Unit  `Coal Productio `Natural Gas (D `Crude Oil Prod
##    <dbl> <chr> <chr>            <dbl>            <dbl>            <dbl>
##  1  1949 13    Quad             12.0             5.38             10.7
##  2  1950 13    Quad             14.1             6.23             11.4
##  3  1951 13    Quad             14.4             7.42             13.0
##  4  1952 13    Quad             12.7             7.96             13.3
##  5  1953 13    Quad             12.3             8.34             13.7
##  6  1954 13    Quad             10.5             8.68             13.4
##  7  1955 13    Quad             12.4             9.34             14.4
##  8  1956 13    Quad             13.3            10.0              15.2
##  9  1957 13    Quad             13.1            10.6              15.2
## 10  1958 13    Quad             10.8            10.9              14.2
## #  with 61 more rows, and 10 more variables: `Natural Gas Plant Liquids
## #   Production` <dbl>, `Total Fossil Fuels Production` <dbl>, `Nuclear Electric
## #   Power Production` <dbl>, `Hydroelectric Power Production` <dbl>,
## #   `Geothermal Energy Production` <dbl>, `Solar Energy Production` <dbl>,
## #   `Wind Energy Production` <dbl>, `Biomass Energy Production` <dbl>, `Total
## #   Renewable Energy Production` <dbl>, `Total Primary Energy Production` <dbl>
…
output

## # A tibble: 48 x 14
##    year  `Coal Productio `Natural Gas (D `Crude Oil Prod `Natural Gas Pl
##    <chr>            <dbl>            <dbl>            <dbl>            <dbl>
##  1 1973              14.0             22.2             19.5             2.53
##  2 1974              14.1             21.2             18.6             2.43
##  3 1975              15.0             19.6             17.7             2.34
##  4 1976              15.7             19.5             17.3             2.29
##  5 1977              15.8             19.6             17.5             2.29
##  6 1978              14.9             19.5             18.4             2.20
##  7 1979              17.5             20.1             18.1             2.23
##  8 1980              18.6             19.9             18.2             2.22
##  9 1981              18.4             19.7             18.1             2.27
## 10 1982              18.6             18.3             18.3             2.15
## #  with 38 more rows, and 9 more variables: `Total Fossil Fuels
## #   Production` <dbl>, `Nuclear Electric Power Production` <dbl>,
## #   `Hydroelectric Power Production` <dbl>, `Geothermal Energy
## #   Production` <dbl>, `Solar Energy Production` <dbl>, `Wind Energy
## #   Production` <dbl>, `Biomass Energy Production` <dbl>, `Total Renewable
## #   Energy Production` <dbl>, `Total Primary Energy Production` <dbl>
…
## Alternately, selecting by column position
specific_prod <- US_energy.yearly %>% 
  dplyr::select(1, 3, 4, 5, 6, 7, 9, 10, 11, 12, 13, 14)

specific_prod

output

## # A tibble: 71 x 12
##     year Unit  `Coal Productio `Natural Gas (D `Crude Oil Prod
##    <dbl> <chr>            <dbl>            <dbl>            <dbl>
##  1  1949 Quad             12.0             5.38             10.7
##  2  1950 Quad             14.1             6.23             11.4
##  3  1951 Quad             14.4             7.42             13.0
##  4  1952 Quad             12.7             7.96             13.3
##  5  1953 Quad             12.3             8.34             13.7
##  6  1954 Quad             10.5             8.68             13.4
##  7  1955 Quad             12.4             9.34             14.4
##  8  1956 Quad             13.3            10.0              15.2
##  9  1957 Quad             13.1            10.6              15.2
## 10  1958 Quad             10.8            10.9              14.2
## #  with 61 more rows, and 7 more variables: `Natural Gas Plant Liquids
## #   Production` <dbl>, `Nuclear Electric Power Production` <dbl>,
## #   `Hydroelectric Power Production` <dbl>, `Geothermal Energy
## #   Production` <dbl>, `Solar Energy Production` <dbl>, `Wind Energy
## #   Production` <dbl>, `Biomass Energy Production` <dbl>

5b) Select columns with broad production types

broad_prod <- US_energy.yearly %>% 
  dplyr::select(1, 3, 8, 15, 16)

broad_prod

output

## # A tibble: 71 x 5
##     year Unit     `Total Fossil Fuels `Total Renewable En `Total Primary Ener
##    <dbl> <chr>                   <dbl>                <dbl>                <dbl>
##  1  1949 Quadril                 28.7                 2.97                 31.7
##  2  1950 Quadril                 32.6                 2.98                 35.5
##  3  1951 Quadril                 35.8                 2.96                 38.7
##  4  1952 Quadril                 35.0                 2.94                 37.9
##  5  1953 Quadril                 35.3                 2.83                 38.2
##  6  1954 Quadril                 33.8                 2.75                 36.5
##  7  1955 Quadril                 37.3                 2.78                 40.1
##  8  1956 Quadril                 39.8                 2.85                 42.6
##  9  1957 Quadril                 40.1                 2.85                 43.0
## 10  1958 Quadril                 37.2                 2.92                 40.1
## #  with 61 more rows
…
6a) Pivot specific production dataframe

specific_prod.long <- specific_prod %>% 
  # Pivot longer by selecting which columns to NOT pivot using a minus sign
  pivot_longer(cols = c(-year, -Unit),
               # Add the names of the columns to a new column called "energy_source"
               names_to = "energy_source", 
               # Add the values in the old columns to a new column called "production"
               values_to = "production")

specific_prod.long

output

## # A tibble: 710 x 4
##     year Unit            energy_source                        production
##    <dbl> <chr>           <chr>                                     <dbl>
##  1  1949 Quadrillion Btu Coal Production                          12.0  
##  2  1949 Quadrillion Btu Natural Gas (Dry) Production              5.38 
##  3  1949 Quadrillion Btu Crude Oil Production                     10.7  
##  4  1949 Quadrillion Btu Natural Gas Plant Liquids Production      0.706
##  5  1949 Quadrillion Btu Nuclear Electric Power Production         0    
##  6  1949 Quadrillion Btu Hydroelectric Power Production            1.42 
##  7  1949 Quadrillion Btu Geothermal Energy Production             NA    
##  8  1949 Quadrillion Btu Solar Energy Production                  NA    
##  9  1949 Quadrillion Btu Wind Energy Production                   NA    
## 10  1949 Quadrillion Btu Biomass Energy Production                 1.55 
## #  with 700 more rows

6b) Pivot specific production dataframe

broad_prod.long <- broad_prod %>% 
  pivot_longer(cols = c(-year, -Unit),
               names_to = "energy_source", 
               values_to = "production")

broad_prod.long

output

## # A tibble: 213 x 4
##     year Unit            energy_source                     production
##    <dbl> <chr>           <chr>                                  <dbl>
##  1  1949 Quadrillion Btu Total Fossil Fuels Production          28.7 
##  2  1949 Quadrillion Btu Total Renewable Energy Production       2.97
##  3  1949 Quadrillion Btu Total Primary Energy Production        31.7 
##  4  1950 Quadrillion Btu Total Fossil Fuels Production          32.6 
##  5  1950 Quadrillion Btu Total Renewable Energy Production       2.98
##  6  1950 Quadrillion Btu Total Primary Energy Production        35.5 
##  7  1951 Quadrillion Btu Total Fossil Fuels Production          35.8 
##  8  1951 Quadrillion Btu Total Renewable Energy Production       2.96
##  9  1951 Quadrillion Btu Total Primary Energy Production        38.7 
## 10  1952 Quadrillion Btu Total Fossil Fuels Production          35.0 
## #  with 203 more rows
…
# If you would like to see this more step-by-step, you can use two separate mutate() functions: one that calculates tot.production and the other calculating perc.production. An alternate and faster way is to just put the two equations in the same mutate() function while separated by a comma.

# Good luck exploring!!!

specific_prod.long %>% 
  # Start by grouping by year. This way, you can calculate the total production for each year instead of for the whole dataframe.
  group_by(year) %>% 
  # Calculate tot.production using sum(). Don't forget to remove any NA values by adding the na.rm = TRUE!
  mutate(tot.production = sum(production, na.rm = TRUE),
         # Then, for each row, take the production of each energy_source and divide it by the newly calculated tot.production. Multiply by 100 to translate it into a percent.
         perc.production = production/tot.production*100)

output

## # A tibble: 710 x 6
## # Groups:   year [71]
##     year Unit      energy_source       production tot.production perc.production
##    <dbl> <chr>     <chr>                    <dbl>          <dbl>           <dbl>
##  1  1949 Quadrill Coal Production         12.0             31.7           37.8 
##  2  1949 Quadrill Natural Gas (Dry)       5.38            31.7           17.0 
##  3  1949 Quadrill Crude Oil Producti     10.7             31.7           33.7 
##  4  1949 Quadrill Natural Gas Plant       0.706           31.7            2.23
##  5  1949 Quadrill Nuclear Electric P      0               31.7            0   
##  6  1949 Quadrill Hydroelectric Powe      1.42            31.7            4.49
##  7  1949 Quadrill Geothermal Energy      NA               31.7           NA   
##  8  1949 Quadrill Solar Energy Produ     NA               31.7           NA   
##  9  1949 Quadrill Wind Energy Produc     NA               31.7           NA   
## 10  1949 Quadrill Biomass Energy Pro      1.55            31.7            4.89
## #  with 700 more rows
…
