Practice Worksheet: Animal Weights
…
\[BMI = kg/m^{2}\]

Where BMI is body mass index, kg is mass in kilograms, and m is height in meters.

Taking the original dataframe, create a new column that contains a calculated BMI for each individual animal (this is obviously totally meaningless in terms of actual data on these species!)

Hint: mutate() is your friend! Also, if you are stuck on how to square a value in R, check out our even better friend, Google!

animal_weights %>% 
  mutate(BMI = weight_kg/height_m^2)

output

## # A tibble: 24 x 7
##    species  sex    age_class individual weight_kg height_m   BMI
##    <chr>    <chr>  <chr>     <chr>          <dbl>    <dbl> <dbl>
##  1 Elephant <NA>   Child     A               8000      4    500 
##  2 Elephant <NA>   Child     B               6000      3    667.
##  3 Elephant <NA>   Adult     C              10000      7    204.
##  4 Elephant <NA>   Adult     D               9000      6.5  213.
##  5 Elephant <NA>   Child     E               7000      4    438.
##  6 Elephant <NA>   Child     F               5500      3    611.
##  7 Elephant <NA>   Adult     G               9000      6.4  220.
##  8 Elephant <NA>   Adult     H               8500      6.5  201.
##  9 Hippo    Female Adult     A               1400      1.4  714.
## 10 Hippo    Female Adult     B               1600      1.4  816.
## #  with 14 more rows
…
